dominate==2.1.16
Flask==0.10.1
Flask-Bootstrap==3.3.5.7
Flask-Script==2.0.5
Flask-SQLAlchemy==2.1
Flask-WTF==0.12
itsdangerous==0.24
Jinja2==2.8
MarkupSafe==0.23
PyYAML==3.11
SQLAlchemy==1.0.9
visitor==0.1.2
Werkzeug==0.10.4
wheel==0.24.0
WTForms==2.0.2
